{
  "project_info": {
    "project_number": "235130926680",
    "firebase_url": "https://morthip-3faea-default-rtdb.asia-southeast1.firebasedatabase.app",
    "project_id": "morthip-3faea",
    "storage_bucket": "morthip-3faea.appspot.com"
  },
  "client": [
    {
      "client_info": {
        "mobilesdk_app_id": "1:235130926680:android:c304c6a276bcb247637c2d",
        "android_client_info": {
          "package_name": "com.morzapp.app"
        }
      },
      "oauth_client": [
        {
          "client_id": "235130926680-5tmaa54lhcc3lu5a8l7tvt04l71608gk.apps.googleusercontent.com",
          "client_type": 1,
          "android_info": {
            "package_name": "com.morzapp.app",
            "certificate_hash": "5e8f16062ea3cd2c4a0d547876baa6f38cabf625"
          }
        },
        {
          "client_id": "235130926680-e23puu99vtamcen5mlhspnc1otn7gh85.apps.googleusercontent.com",
          "client_type": 1,
          "android_info": {
            "package_name": "com.morzapp.app",
            "certificate_hash": "0aa2253260d061da5b3ca62c774cce3986e7adfa"
          }
        },
        {
          "client_id": "235130926680-3qc0c0ermk89qdo6c7604q2879b6968p.apps.googleusercontent.com",
          "client_type": 3
        }
      ],
      "api_key": [
        {
          "current_key": "AIzaSyA_joE0tldXs9m6UUa_64Z9KAB4GusB9sI"
        }
      ],
      "services": {
        "appinvite_service": {
          "other_platform_oauth_client": [
            {
              "client_id": "235130926680-3qc0c0ermk89qdo6c7604q2879b6968p.apps.googleusercontent.com",
              "client_type": 3
            },
            {
              "client_id": "235130926680-kjqhstiaeli1ovbjbeq5fufidobuiui9.apps.googleusercontent.com",
              "client_type": 2,
              "ios_info": {
                "bundle_id": "com.morzapp.ios.app"
              }
            }
          ]
        }
      }
    }
  ],
  "configuration_version": "1"
}